{
  "css.lint.duplicateProperties": "warning",
  "hover.target": "float",
  "intelephense.environment.phpVersion": "7.4.0",
  "javascript.format.insertSpaceAfterOpeningAndBeforeClosingNonemptyBraces": true,
  "javascript.format.semicolons": "insert",
  "javascript.preferences.quoteStyle": "single",
  "javascript.showDeprecated": true,
  "javascript.showUnused": true,
  "pyright.organizeimports.provider": "isort",
  "python.formatting.provider": "black",
  "python.linting.enabled": true,
  "python.linting.flake8Enabled": false,
  "python.linting.mypyEnabled": true,
  "python.linting.pycodestyleEnabled": false,
  "python.linting.pydocstyleEnabled": false,
  "styled-components.lint": {
    "duplicateProperties": "warning"
  },
  "scss.lint.duplicateProperties": "warning",
  "suggest.completionItemKindLabels": {
    "keyword": "\uf1de",
    "variable": "\ue79b",
    "value": "\uf89f",
    "operator": "\u03a8",
    "function": "\u0192",
    "reference": "\ufa46",
    "constant": "\uf923",
    "method": "\uf7d7",
    "struct": "\ufb44",
    "class": "\uf0e8",
    "interface": "\uf93f",
    "text": "\ue612",
    "enum": "\uf096",
    "enumMember": "\uf02b",
    "module": "\uf40d",
    "color": "\ue22b",
    "property": "\ufab6",
    "field": "\uf9be",
    "unit": "\uf475",
    "event": "\uf0e7",
    "file": "\uf723",
    "folder": "\uf114",
    "snippet": "\ue60b",
    "typeParameter": "\uf728",
    "default": "\uf29c"
  },
  "suggest.noselect": true,
  "suggest.enablePreselect": false,
  "suggest.labelMaxLength": 30,
  "suggest.detailMaxLength": 10,
  "suggest.detailField": "preview",
  "suggest.autoTrigger": "trigger",
  "suggest.maxCompleteItemCount": 200,
  "suggest.localityBonus": false,
  "suggest.timeout": 500,
  "suggest.minTriggerInputLength": 2,
  "suggest.triggerCompletionWait": 5,
  "suggest.removeDuplicateItems": true,
  "suggest.defaultSortMethod": "alphabetical",
  "suggest.virtualText": false,
  "tsserver.enableJavascript": true,
  "tsserver.formatOnType": false,
  "tsserver.implicitProjectConfig.checkJs": true,
  "tsserver.implicitProjectConfig.experimentalDecorators": true,
  "tsserver.reportStyleChecksAsWarnings": false,
  "typescript.format.insertSpaceAfterOpeningAndBeforeClosingNonemptyBraces": true,
  "typescript.format.placeOpenBraceOnNewLineForFunctions": true,
  "typescript.format.semicolons": "insert",
  "typescript.preferences.importModuleSpecifier": "shortest",
  "typescript.preferences.importModuleSpecifierEnding": "minimal",
  "typescript.preferences.quoteStyle": "single",
  "typescript.preferences.useAliasesForRenames": true
}
